transcript
# //  Questa Sim-64
# //  Version 2021.1 win64 Jan 19 2021
# //
# //  Copyright 1991-2021 Mentor Graphics Corporation
# //  All Rights Reserved.
# //
# //  QuestaSim and its associated documentation contain trade
# //  secrets and commercial or financial information that are the property of
# //  Mentor Graphics Corporation and are privileged, confidential,
# //  and exempt from disclosure under the Freedom of Information Act,
# //  5 U.S.C. Section 552. Furthermore, this information
# //  is prohibited from disclosure under the Trade Secrets Act,
# //  18 U.S.C. Section 1905.
# //
do run.do
# QuestaSim-64 vlog 2021.1 Compiler 2021.01 Jan 19 2021
# Start time: 21:52:52 on Aug 08,2024
# vlog -reportprogress 300 -f dut.f 
# -- Compiling module FIFO
# 
# Top level modules:
# 	FIFO
# End time: 21:52:52 on Aug 08,2024, Elapsed time: 0:00:00
# Errors: 0, Warnings: 0
# QuestaSim-64 vlog 2021.1 Compiler 2021.01 Jan 19 2021
# Start time: 21:52:52 on Aug 08,2024
# vlog -reportprogress 300 -f tb.f 
# -- Compiling module FIFO_sva
# -- Compiling package FIFO_pkg
# -- Importing package mtiUvm.uvm_pkg (uvm-1.1d Built-in)
# ** Note: (vlog-2286) FIFO_uvm_pkg.sv(4): Using implicit +incdir+F:/questasim/questasim64_2021.1/uvm-1.1d/../verilog_src/uvm-1.1d/src from import uvm_pkg
# ** Warning: components/predictor.svh(136): (vlog-2240) Treating stand-alone use of function 'pop_back' as an implicit VOID cast.
# ** Warning: sequence/write_read_rand_sequence.svh(28): (vlog-2240) Treating stand-alone use of function 'randomize' as an implicit VOID cast.
# -- Compiling interface inf
# -- Importing package FIFO_pkg
# -- Compiling module top_test_uvm
# -- Compiling module top
# 
# Top level modules:
# 	top
# End time: 21:52:53 on Aug 08,2024, Elapsed time: 0:00:01
# Errors: 0, Warnings: 2
# QuestaSim-64 vopt 2021.1 Compiler 2021.01 Jan 19 2021
# Start time: 21:52:54 on Aug 08,2024
# vopt -reportprogress 300 top -o top_optimized "+acc" "+cover=sbfec+FIFO(rtl)" 
# 
# Top level modules:
# 	top
# 
# Analyzing design...
# -- Loading module top
# -- Loading interface inf
# -- Importing package FIFO_pkg
# -- Importing package mtiUvm.uvm_pkg (uvm-1.1d Built-in)
# -- Loading package mtiUvm.questa_uvm_pkg
# -- Loading module FIFO
# -- Loading module top_test_uvm
# -- Loading module FIFO_sva
# Optimizing 9 design-units (inlining 0/5 module instances):
# -- Optimizing package mtiUvm.uvm_pkg (uvm-1.1d Built-in)(fast)
# -- Optimizing package mtiUvm.questa_uvm_pkg(fast)
# -- Optimizing package FIFO_pkg(fast)
# ** Warning: components/predictor.svh(136): (vopt-2240) Treating stand-alone use of function 'pop_back' as an implicit VOID cast.
# ** Warning: sequence/write_read_rand_sequence.svh(28): (vopt-2240) Treating stand-alone use of function 'randomize' as an implicit VOID cast.
# -- Optimizing module FIFO_sva(fast)
# -- Optimizing module FIFO(fast)
# -- Optimizing interface inf(fast__2)
# -- Optimizing module top_test_uvm(fast)
# -- Optimizing module top(fast)
# -- Optimizing interface inf(fast)
# Optimized design name is top_optimized
# End time: 21:52:57 on Aug 08,2024, Elapsed time: 0:00:03
# Errors: 0, Warnings: 2
# vsim top_optimized -coverage "+UVM_TESTNAME=reset_test" 
# Start time: 21:52:57 on Aug 08,2024
# Loading sv_std.std
# Loading work.top(fast)
# Loading work.inf(fast)
# Loading mtiUvm.uvm_pkg(fast)
# Loading work.FIFO_pkg(fast)
# Loading mtiUvm.questa_uvm_pkg(fast)
# Loading work.inf(fast__2)
# Loading work.FIFO(fast)
# Loading work.FIFO_sva(fast)
# Loading work.top_test_uvm(fast)
# Loading F:/questasim/questasim64_2021.1/uvm-1.1d\win64\uvm_dpi.dll
# 1
# ----------------------------------------------------------------
# UVM-1.1d
# (C) 2007-2013 Mentor Graphics Corporation
# (C) 2007-2013 Cadence Design Systems, Inc.
# (C) 2006-2013 Synopsys, Inc.
# (C) 2011-2013 Cypress Semiconductor Corp.
# ----------------------------------------------------------------
# 
#   ***********       IMPORTANT RELEASE NOTES         ************
# 
#   You are using a version of the UVM library that has been compiled
#   with `UVM_NO_DEPRECATED undefined.
#   See http://www.eda.org/svdb/view.php?id=3313 for more details.
# 
#   You are using a version of the UVM library that has been compiled
#   with `UVM_OBJECT_MUST_HAVE_CONSTRUCTOR undefined.
#   See http://www.eda.org/svdb/view.php?id=3770 for more details.
# 
#       (Specify +UVM_NO_RELNOTES to turn off this notice)
# 
# UVM_INFO verilog_src/questa_uvm_pkg-1.2/src/questa_uvm_pkg.sv(277) @ 0: reporter [Questa UVM] QUESTA_UVM-1.2.3
# UVM_INFO verilog_src/questa_uvm_pkg-1.2/src/questa_uvm_pkg.sv(278) @ 0: reporter [Questa UVM]  questa_uvm::init(+struct)
# UVM_INFO @ 0: reporter [RNTST] Running test reset_test...
# base_test build phase
# my_test build phase
# env build phase
# my_agent build phase
# my_driver build phase
# my_monitor build phase
# my_monitor build phase
# sequencer build phase
# coverage build_phase
# my_scoreboard build phase
# my_compartor build phase
# my_predictor build phase
# my_driver connect phase
# my_monitor connect phase
# my_monitor connect phase
# sequencer connect phase
# my_agent connect phase
# my_compartor connect phase
# my_scoreboard connect phase
# my_scoreboard connect phase
# envconnect phase
# my_test connect phase
# my_test connect phase
# my_monitor end_of_elaboration_phase
# my_monitor end_of_elaboration_phase
# my_monitor end_of_elaboration_phase
# UVM_INFO components/env.svh(58) @ 0: uvm_test_top.env_h [env_h] '{"uvm_test_top.env_h.agent_h.tlm_analysis_port_inputs":@uvm_port_component__5@13, "uvm_test_top.env_h.agent_h.tlm_analysis_port_outputs":@uvm_port_component__5@14 }
# UVM_INFO components/env.svh(60) @ 0: uvm_test_top.env_h [env_h] '{"uvm_test_top.env_h.agent_h.tlm_analysis_port_inputs":@uvm_port_component__5@13 }
# UVM_INFO components/env.svh(62) @ 0: uvm_test_top.env_h [env_h] '{"uvm_test_top.env_h.agent_h.tlm_analysis_port_outputs":@uvm_port_component__5@14 }
# FINISHED GET_PROVIDED_TO
# UVM_INFO components/env.svh(65) @ 0: uvm_test_top.env_h [env_h] '{ }
# UVM_INFO components/env.svh(67) @ 0: uvm_test_top.env_h [env_h] '{"uvm_test_top.env_h.scoreboard_h.predictor_h.analysis_imp":@uvm_port_component__5@19 }
# UVM_INFO components/env.svh(69) @ 0: uvm_test_top.env_h [env_h] '{"uvm_test_top.env_h.scoreboard_h.comparator_h.analysis_actual_outputs":@uvm_port_component__5@31 }
# my_monitor end_of_elaboration_phase
# env run phase
# my_predictor run phase
# UVM_INFO components/comparator.svh(46) @ 0: uvm_test_top.env_h.scoreboard_h.comparator_h [COMPARATOR] RUN PHASE
# coverage run_phase
# my_agent run phase
# sequencer run phase
# start of pre_body task
# start of body task
# start item has been invoked
# UVM_INFO components/predictor.svh(71) @ 0: uvm_test_top.env_h.scoreboard_h.predictor_h [PREDICTOR] WRITTEN_DATA: rst_n:0 ,wr_en:0 ,rd_en:0 , data_in:0
# UVM_INFO components/predictor.svh(75) @ 0: uvm_test_top.env_h.scoreboard_h.predictor_h [PREDICTOR] EXPECTED_DATA:  time:                    0  rst_n:0  data_in: 0  wr_en: 0  rd_en: 0  data_out: 0  wr_ack: 0  overflow:0  underflow: 0  almost_empty: 0  empty: 1   almost_full: 0   full: 0  half_full: 0
# my_predictor run phase
# UVM_INFO components/comparator.svh(48) @ 0: uvm_test_top.env_h.scoreboard_h.comparator_h [COMPARATOR] EXPECTED_SEQ_ITEM RECIEVED:  time:                    0  rst_n:0  data_in: 0  wr_en: 0  rd_en: 0  data_out: 0  wr_ack: 0  overflow:0  underflow: 0  almost_empty: 0  empty: 1   almost_full: 0   full: 0  half_full: 0
# UVM_INFO components/comparator.svh(51) @ 20: uvm_test_top.env_h.scoreboard_h.comparator_h [COMPARATOR] actual_SEQ_ITEM RECIEVED:  time:                   20  rst_n:0  data_in: 0  wr_en: 0  rd_en: 0  data_out: x  wr_ack: x  overflow:x  underflow: 0  almost_empty: 0  empty: 1   almost_full: 0   full: 0  half_full: x
# UVM_ERROR components/comparator.svh(58) @ 20: uvm_test_top.env_h.scoreboard_h.comparator_h [SCOREBOARD] FAIL
# UVM_INFO components/comparator.svh(46) @ 20: uvm_test_top.env_h.scoreboard_h.comparator_h [COMPARATOR] RUN PHASE
# finish item has been invoked
# my_test run phase
# UVM_INFO verilog_src/uvm-1.1d/src/base/uvm_objection.svh(1267) @ 20: reporter [TEST_DONE] 'run' phase is ready to proceed to the 'extract' phase
# 
# --- UVM Report Summary ---
# 
# ** Report counts by severity
# UVM_INFO :   16
# UVM_WARNING :    0
# UVM_ERROR :    1
# UVM_FATAL :    0
# ** Report counts by id
# [COMPARATOR]     4
# [PREDICTOR]     2
# [Questa UVM]     2
# [RNTST]     1
# [SCOREBOARD]     1
# [TEST_DONE]     1
# [env_h]     6
# ** Note: $finish    : F:/questasim/questasim64_2021.1/win64/../verilog_src/uvm-1.1d/src/base/uvm_root.svh(430)
#    Time: 20 ns  Iteration: 61  Instance: /top/top1
# 1
# Break in Task uvm_pkg/uvm_root::run_test at F:/questasim/questasim64_2021.1/win64/../verilog_src/uvm-1.1d/src/base/uvm_root.svh line 430
# ** Warning: (vsim-19042) No matching item found for '/FIFO_uvm_pkg/coverage/OPERATION_covgrp'.
# ** Warning: (vsim-19042) No matching item found for '/FIFO_uvm_pkg/coverage/FLAGS_covgrp'.
# ** Note: (vsim-17388) No matching coverage data found.
# End time: 21:53:36 on Aug 08,2024, Elapsed time: 0:00:39
# Errors: 0, Warnings: 2
# vsim top_optimized -coverage "+UVM_TESTNAME=reset_write_read_all_test" 
# Start time: 21:53:36 on Aug 08,2024
# Loading sv_std.std
# Loading work.top(fast)
# Loading work.inf(fast)
# Loading mtiUvm.uvm_pkg(fast)
# Loading work.FIFO_pkg(fast)
# Loading mtiUvm.questa_uvm_pkg(fast)
# Loading work.inf(fast__2)
# Loading work.FIFO(fast)
# Loading work.FIFO_sva(fast)
# Loading work.top_test_uvm(fast)
# Loading F:/questasim/questasim64_2021.1/uvm-1.1d\win64\uvm_dpi.dll
# 1
# ----------------------------------------------------------------
# UVM-1.1d
# (C) 2007-2013 Mentor Graphics Corporation
# (C) 2007-2013 Cadence Design Systems, Inc.
# (C) 2006-2013 Synopsys, Inc.
# (C) 2011-2013 Cypress Semiconductor Corp.
# ----------------------------------------------------------------
# 
#   ***********       IMPORTANT RELEASE NOTES         ************
# 
#   You are using a version of the UVM library that has been compiled
#   with `UVM_NO_DEPRECATED undefined.
#   See http://www.eda.org/svdb/view.php?id=3313 for more details.
# 
#   You are using a version of the UVM library that has been compiled
#   with `UVM_OBJECT_MUST_HAVE_CONSTRUCTOR undefined.
#   See http://www.eda.org/svdb/view.php?id=3770 for more details.
# 
#       (Specify +UVM_NO_RELNOTES to turn off this notice)
# 
# UVM_INFO verilog_src/questa_uvm_pkg-1.2/src/questa_uvm_pkg.sv(277) @ 0: reporter [Questa UVM] QUESTA_UVM-1.2.3
# UVM_INFO verilog_src/questa_uvm_pkg-1.2/src/questa_uvm_pkg.sv(278) @ 0: reporter [Questa UVM]  questa_uvm::init(+struct)
# UVM_INFO @ 0: reporter [RNTST] Running test reset_write_read_all_test...
# base_test build phase
# my_test build phase
# env build phase
# my_agent build phase
# my_driver build phase
# my_monitor build phase
# my_monitor build phase
# sequencer build phase
# coverage build_phase
# my_scoreboard build phase
# my_compartor build phase
# my_predictor build phase
# my_driver connect phase
# my_monitor connect phase
# my_monitor connect phase
# sequencer connect phase
# my_agent connect phase
# my_compartor connect phase
# my_scoreboard connect phase
# my_scoreboard connect phase
# envconnect phase
# my_test connect phase
# my_test connect phase
# my_monitor end_of_elaboration_phase
# my_monitor end_of_elaboration_phase
# my_monitor end_of_elaboration_phase
# UVM_INFO components/env.svh(58) @ 0: uvm_test_top.env_h [env_h] '{"uvm_test_top.env_h.agent_h.tlm_analysis_port_inputs":@uvm_port_component__5@13, "uvm_test_top.env_h.agent_h.tlm_analysis_port_outputs":@uvm_port_component__5@14 }
# UVM_INFO components/env.svh(60) @ 0: uvm_test_top.env_h [env_h] '{"uvm_test_top.env_h.agent_h.tlm_analysis_port_inputs":@uvm_port_component__5@13 }
# UVM_INFO components/env.svh(62) @ 0: uvm_test_top.env_h [env_h] '{"uvm_test_top.env_h.agent_h.tlm_analysis_port_outputs":@uvm_port_component__5@14 }
# FINISHED GET_PROVIDED_TO
# UVM_INFO components/env.svh(65) @ 0: uvm_test_top.env_h [env_h] '{ }
# UVM_INFO components/env.svh(67) @ 0: uvm_test_top.env_h [env_h] '{"uvm_test_top.env_h.scoreboard_h.predictor_h.analysis_imp":@uvm_port_component__5@19 }
# UVM_INFO components/env.svh(69) @ 0: uvm_test_top.env_h [env_h] '{"uvm_test_top.env_h.scoreboard_h.comparator_h.analysis_actual_outputs":@uvm_port_component__5@31 }
# my_monitor end_of_elaboration_phase
# env run phase
# my_predictor run phase
# UVM_INFO components/comparator.svh(46) @ 0: uvm_test_top.env_h.scoreboard_h.comparator_h [COMPARATOR] RUN PHASE
# coverage run_phase
# my_agent run phase
# sequencer run phase
# start of pre_body task
# start of pre_body task
# start of pre_body task
# start of pre_body task
# start of pre_body task
# start of body task
# start item has been invoked
# UVM_INFO components/predictor.svh(71) @ 0: uvm_test_top.env_h.scoreboard_h.predictor_h [PREDICTOR] WRITTEN_DATA: rst_n:0 ,wr_en:0 ,rd_en:0 , data_in:0
# UVM_INFO components/predictor.svh(75) @ 0: uvm_test_top.env_h.scoreboard_h.predictor_h [PREDICTOR] EXPECTED_DATA:  time:                    0  rst_n:0  data_in: 0  wr_en: 0  rd_en: 0  data_out: 0  wr_ack: 0  overflow:0  underflow: 0  almost_empty: 0  empty: 1   almost_full: 0   full: 0  half_full: 0
# my_predictor run phase
# UVM_INFO components/comparator.svh(48) @ 0: uvm_test_top.env_h.scoreboard_h.comparator_h [COMPARATOR] EXPECTED_SEQ_ITEM RECIEVED:  time:                    0  rst_n:0  data_in: 0  wr_en: 0  rd_en: 0  data_out: 0  wr_ack: 0  overflow:0  underflow: 0  almost_empty: 0  empty: 1   almost_full: 0   full: 0  half_full: 0
# UVM_INFO components/comparator.svh(51) @ 20: uvm_test_top.env_h.scoreboard_h.comparator_h [COMPARATOR] actual_SEQ_ITEM RECIEVED:  time:                   20  rst_n:0  data_in: 0  wr_en: 0  rd_en: 0  data_out: x  wr_ack: x  overflow:x  underflow: 0  almost_empty: 0  empty: 1   almost_full: 0   full: 0  half_full: x
# UVM_ERROR components/comparator.svh(58) @ 20: uvm_test_top.env_h.scoreboard_h.comparator_h [SCOREBOARD] FAIL
# UVM_INFO components/comparator.svh(46) @ 20: uvm_test_top.env_h.scoreboard_h.comparator_h [COMPARATOR] RUN PHASE
# finish item has been invoked
# start of pre_body task
# start of pre_body task
# UVM_INFO components/predictor.svh(71) @ 20: uvm_test_top.env_h.scoreboard_h.predictor_h [PREDICTOR] WRITTEN_DATA: rst_n:1 ,wr_en:1 ,rd_en:0 , data_in:985
# WRITE_POINER = 1
# READ_POINER = 0
# UVM_INFO components/predictor.svh(75) @ 20: uvm_test_top.env_h.scoreboard_h.predictor_h [PREDICTOR] EXPECTED_DATA:  time:                   20  rst_n:1  data_in: 985  wr_en: 1  rd_en: 0  data_out: 0  wr_ack: 1  overflow:0  underflow: 0  almost_empty: 1  empty: 0   almost_full: 0   full: 0  half_full: 0
# my_predictor run phase
# UVM_INFO components/comparator.svh(48) @ 20: uvm_test_top.env_h.scoreboard_h.comparator_h [COMPARATOR] EXPECTED_SEQ_ITEM RECIEVED:  time:                   20  rst_n:1  data_in: 985  wr_en: 1  rd_en: 0  data_out: 0  wr_ack: 1  overflow:0  underflow: 0  almost_empty: 1  empty: 0   almost_full: 0   full: 0  half_full: 0
# UVM_INFO components/comparator.svh(51) @ 40: uvm_test_top.env_h.scoreboard_h.comparator_h [COMPARATOR] actual_SEQ_ITEM RECIEVED:  time:                   40  rst_n:1  data_in: 985  wr_en: 1  rd_en: 0  data_out: x  wr_ack: 1  overflow:0  underflow: 0  almost_empty: 1  empty: 0   almost_full: 0   full: 0  half_full: x
# UVM_ERROR components/comparator.svh(58) @ 40: uvm_test_top.env_h.scoreboard_h.comparator_h [SCOREBOARD] FAIL
# UVM_INFO components/comparator.svh(46) @ 40: uvm_test_top.env_h.scoreboard_h.comparator_h [COMPARATOR] RUN PHASE
# start of pre_body task
# start of pre_body task
# UVM_INFO components/predictor.svh(71) @ 40: uvm_test_top.env_h.scoreboard_h.predictor_h [PREDICTOR] WRITTEN_DATA: rst_n:1 ,wr_en:1 ,rd_en:0 , data_in:34927
# WRITE_POINER = 2
# READ_POINER = 0
# UVM_INFO components/predictor.svh(75) @ 40: uvm_test_top.env_h.scoreboard_h.predictor_h [PREDICTOR] EXPECTED_DATA:  time:                   40  rst_n:1  data_in: 34927  wr_en: 1  rd_en: 0  data_out: 0  wr_ack: 1  overflow:0  underflow: 0  almost_empty: 0  empty: 0   almost_full: 0   full: 0  half_full: 0
# my_predictor run phase
# UVM_INFO components/comparator.svh(48) @ 40: uvm_test_top.env_h.scoreboard_h.comparator_h [COMPARATOR] EXPECTED_SEQ_ITEM RECIEVED:  time:                   40  rst_n:1  data_in: 34927  wr_en: 1  rd_en: 0  data_out: 0  wr_ack: 1  overflow:0  underflow: 0  almost_empty: 0  empty: 0   almost_full: 0   full: 0  half_full: 0
# UVM_INFO components/comparator.svh(51) @ 60: uvm_test_top.env_h.scoreboard_h.comparator_h [COMPARATOR] actual_SEQ_ITEM RECIEVED:  time:                   60  rst_n:1  data_in: 34927  wr_en: 1  rd_en: 0  data_out: x  wr_ack: 1  overflow:0  underflow: 0  almost_empty: 0  empty: 0   almost_full: 0   full: 0  half_full: x
# UVM_ERROR components/comparator.svh(58) @ 60: uvm_test_top.env_h.scoreboard_h.comparator_h [SCOREBOARD] FAIL
# UVM_INFO components/comparator.svh(46) @ 60: uvm_test_top.env_h.scoreboard_h.comparator_h [COMPARATOR] RUN PHASE
# start of pre_body task
# start of pre_body task
# UVM_INFO components/predictor.svh(71) @ 60: uvm_test_top.env_h.scoreboard_h.predictor_h [PREDICTOR] WRITTEN_DATA: rst_n:1 ,wr_en:1 ,rd_en:0 , data_in:10672
# WRITE_POINER = 3
# READ_POINER = 0
# UVM_INFO components/predictor.svh(75) @ 60: uvm_test_top.env_h.scoreboard_h.predictor_h [PREDICTOR] EXPECTED_DATA:  time:                   60  rst_n:1  data_in: 10672  wr_en: 1  rd_en: 0  data_out: 0  wr_ack: 1  overflow:0  underflow: 0  almost_empty: 0  empty: 0   almost_full: 0   full: 0  half_full: 0
# my_predictor run phase
# UVM_INFO components/comparator.svh(48) @ 60: uvm_test_top.env_h.scoreboard_h.comparator_h [COMPARATOR] EXPECTED_SEQ_ITEM RECIEVED:  time:                   60  rst_n:1  data_in: 10672  wr_en: 1  rd_en: 0  data_out: 0  wr_ack: 1  overflow:0  underflow: 0  almost_empty: 0  empty: 0   almost_full: 0   full: 0  half_full: 0
# UVM_INFO components/comparator.svh(51) @ 80: uvm_test_top.env_h.scoreboard_h.comparator_h [COMPARATOR] actual_SEQ_ITEM RECIEVED:  time:                   80  rst_n:1  data_in: 10672  wr_en: 1  rd_en: 0  data_out: x  wr_ack: 1  overflow:0  underflow: 0  almost_empty: 0  empty: 0   almost_full: 0   full: 0  half_full: x
# UVM_ERROR components/comparator.svh(58) @ 80: uvm_test_top.env_h.scoreboard_h.comparator_h [SCOREBOARD] FAIL
# UVM_INFO components/comparator.svh(46) @ 80: uvm_test_top.env_h.scoreboard_h.comparator_h [COMPARATOR] RUN PHASE
# start of pre_body task
# start of pre_body task
# UVM_INFO components/predictor.svh(71) @ 80: uvm_test_top.env_h.scoreboard_h.predictor_h [PREDICTOR] WRITTEN_DATA: rst_n:1 ,wr_en:1 ,rd_en:0 , data_in:24861
# WRITE_POINER = 4
# READ_POINER = 0
# UVM_INFO components/predictor.svh(75) @ 80: uvm_test_top.env_h.scoreboard_h.predictor_h [PREDICTOR] EXPECTED_DATA:  time:                   80  rst_n:1  data_in: 24861  wr_en: 1  rd_en: 0  data_out: 0  wr_ack: 1  overflow:0  underflow: 0  almost_empty: 0  empty: 0   almost_full: 0   full: 0  half_full: 1
# my_predictor run phase
# UVM_INFO components/comparator.svh(48) @ 80: uvm_test_top.env_h.scoreboard_h.comparator_h [COMPARATOR] EXPECTED_SEQ_ITEM RECIEVED:  time:                   80  rst_n:1  data_in: 24861  wr_en: 1  rd_en: 0  data_out: 0  wr_ack: 1  overflow:0  underflow: 0  almost_empty: 0  empty: 0   almost_full: 0   full: 0  half_full: 1
# UVM_INFO components/comparator.svh(51) @ 100: uvm_test_top.env_h.scoreboard_h.comparator_h [COMPARATOR] actual_SEQ_ITEM RECIEVED:  time:                  100  rst_n:1  data_in: 24861  wr_en: 1  rd_en: 0  data_out: x  wr_ack: 1  overflow:0  underflow: 0  almost_empty: 0  empty: 0   almost_full: 0   full: 0  half_full: x
# UVM_ERROR components/comparator.svh(58) @ 100: uvm_test_top.env_h.scoreboard_h.comparator_h [SCOREBOARD] FAIL
# UVM_INFO components/comparator.svh(46) @ 100: uvm_test_top.env_h.scoreboard_h.comparator_h [COMPARATOR] RUN PHASE
# start of pre_body task
# start of pre_body task
# UVM_INFO components/predictor.svh(71) @ 100: uvm_test_top.env_h.scoreboard_h.predictor_h [PREDICTOR] WRITTEN_DATA: rst_n:1 ,wr_en:1 ,rd_en:0 , data_in:22850
# WRITE_POINER = 5
# READ_POINER = 0
# UVM_INFO components/predictor.svh(75) @ 100: uvm_test_top.env_h.scoreboard_h.predictor_h [PREDICTOR] EXPECTED_DATA:  time:                  100  rst_n:1  data_in: 22850  wr_en: 1  rd_en: 0  data_out: 0  wr_ack: 1  overflow:0  underflow: 0  almost_empty: 0  empty: 0   almost_full: 0   full: 0  half_full: 0
# my_predictor run phase
# UVM_INFO components/comparator.svh(48) @ 100: uvm_test_top.env_h.scoreboard_h.comparator_h [COMPARATOR] EXPECTED_SEQ_ITEM RECIEVED:  time:                  100  rst_n:1  data_in: 22850  wr_en: 1  rd_en: 0  data_out: 0  wr_ack: 1  overflow:0  underflow: 0  almost_empty: 0  empty: 0   almost_full: 0   full: 0  half_full: 0
# UVM_INFO components/comparator.svh(51) @ 120: uvm_test_top.env_h.scoreboard_h.comparator_h [COMPARATOR] actual_SEQ_ITEM RECIEVED:  time:                  120  rst_n:1  data_in: 22850  wr_en: 1  rd_en: 0  data_out: x  wr_ack: 1  overflow:0  underflow: 0  almost_empty: 0  empty: 0   almost_full: 0   full: 0  half_full: x
# UVM_ERROR components/comparator.svh(58) @ 120: uvm_test_top.env_h.scoreboard_h.comparator_h [SCOREBOARD] FAIL
# UVM_INFO components/comparator.svh(46) @ 120: uvm_test_top.env_h.scoreboard_h.comparator_h [COMPARATOR] RUN PHASE
# start of pre_body task
# start of pre_body task
# UVM_INFO components/predictor.svh(71) @ 120: uvm_test_top.env_h.scoreboard_h.predictor_h [PREDICTOR] WRITTEN_DATA: rst_n:1 ,wr_en:1 ,rd_en:0 , data_in:5915
# WRITE_POINER = 6
# READ_POINER = 0
# UVM_INFO components/predictor.svh(75) @ 120: uvm_test_top.env_h.scoreboard_h.predictor_h [PREDICTOR] EXPECTED_DATA:  time:                  120  rst_n:1  data_in: 5915  wr_en: 1  rd_en: 0  data_out: 0  wr_ack: 1  overflow:0  underflow: 0  almost_empty: 0  empty: 0   almost_full: 0   full: 0  half_full: 0
# my_predictor run phase
# UVM_INFO components/comparator.svh(48) @ 120: uvm_test_top.env_h.scoreboard_h.comparator_h [COMPARATOR] EXPECTED_SEQ_ITEM RECIEVED:  time:                  120  rst_n:1  data_in: 5915  wr_en: 1  rd_en: 0  data_out: 0  wr_ack: 1  overflow:0  underflow: 0  almost_empty: 0  empty: 0   almost_full: 0   full: 0  half_full: 0
# UVM_INFO components/comparator.svh(51) @ 140: uvm_test_top.env_h.scoreboard_h.comparator_h [COMPARATOR] actual_SEQ_ITEM RECIEVED:  time:                  140  rst_n:1  data_in: 5915  wr_en: 1  rd_en: 0  data_out: x  wr_ack: 1  overflow:0  underflow: 0  almost_empty: 0  empty: 0   almost_full: 1   full: 0  half_full: x
# UVM_ERROR components/comparator.svh(58) @ 140: uvm_test_top.env_h.scoreboard_h.comparator_h [SCOREBOARD] FAIL
# UVM_INFO components/comparator.svh(46) @ 140: uvm_test_top.env_h.scoreboard_h.comparator_h [COMPARATOR] RUN PHASE
# start of pre_body task
# start of pre_body task
# UVM_INFO components/predictor.svh(71) @ 140: uvm_test_top.env_h.scoreboard_h.predictor_h [PREDICTOR] WRITTEN_DATA: rst_n:1 ,wr_en:1 ,rd_en:0 , data_in:34244
# WRITE_POINER = 7
# READ_POINER = 0
# UVM_INFO components/predictor.svh(75) @ 140: uvm_test_top.env_h.scoreboard_h.predictor_h [PREDICTOR] EXPECTED_DATA:  time:                  140  rst_n:1  data_in: 34244  wr_en: 1  rd_en: 0  data_out: 0  wr_ack: 1  overflow:0  underflow: 0  almost_empty: 0  empty: 0   almost_full: 1   full: 0  half_full: 0
# my_predictor run phase
# UVM_INFO components/comparator.svh(48) @ 140: uvm_test_top.env_h.scoreboard_h.comparator_h [COMPARATOR] EXPECTED_SEQ_ITEM RECIEVED:  time:                  140  rst_n:1  data_in: 34244  wr_en: 1  rd_en: 0  data_out: 0  wr_ack: 1  overflow:0  underflow: 0  almost_empty: 0  empty: 0   almost_full: 1   full: 0  half_full: 0
# UVM_INFO components/comparator.svh(51) @ 160: uvm_test_top.env_h.scoreboard_h.comparator_h [COMPARATOR] actual_SEQ_ITEM RECIEVED:  time:                  160  rst_n:1  data_in: 34244  wr_en: 1  rd_en: 0  data_out: x  wr_ack: 1  overflow:0  underflow: 0  almost_empty: 0  empty: 0   almost_full: 0   full: 0  half_full: x
# UVM_ERROR components/comparator.svh(58) @ 160: uvm_test_top.env_h.scoreboard_h.comparator_h [SCOREBOARD] FAIL
# UVM_INFO components/comparator.svh(46) @ 160: uvm_test_top.env_h.scoreboard_h.comparator_h [COMPARATOR] RUN PHASE
# start of pre_body task
# start of pre_body task
# UVM_INFO components/predictor.svh(71) @ 160: uvm_test_top.env_h.scoreboard_h.predictor_h [PREDICTOR] WRITTEN_DATA: rst_n:1 ,wr_en:1 ,rd_en:0 , data_in:587
# WRITE_POINER = 0
# READ_POINER = 0
# UVM_INFO components/predictor.svh(75) @ 160: uvm_test_top.env_h.scoreboard_h.predictor_h [PREDICTOR] EXPECTED_DATA:  time:                  160  rst_n:1  data_in: 587  wr_en: 1  rd_en: 0  data_out: 0  wr_ack: 1  overflow:0  underflow: 0  almost_empty: 0  empty: 0   almost_full: 0   full: 1  half_full: 0
# my_predictor run phase
# UVM_INFO components/comparator.svh(48) @ 160: uvm_test_top.env_h.scoreboard_h.comparator_h [COMPARATOR] EXPECTED_SEQ_ITEM RECIEVED:  time:                  160  rst_n:1  data_in: 587  wr_en: 1  rd_en: 0  data_out: 0  wr_ack: 1  overflow:0  underflow: 0  almost_empty: 0  empty: 0   almost_full: 0   full: 1  half_full: 0
# ** Error: Assertion error.
#    Time: 165 ns Started: 155 ns  Scope: top.DUT.sva.full_high_assert File: FIFO_sva.sv Line: 77
# UVM_INFO components/comparator.svh(51) @ 180: uvm_test_top.env_h.scoreboard_h.comparator_h [COMPARATOR] actual_SEQ_ITEM RECIEVED:  time:                  180  rst_n:1  data_in: 587  wr_en: 1  rd_en: 0  data_out: x  wr_ack: 1  overflow:0  underflow: 0  almost_empty: 0  empty: 0   almost_full: 0   full: 1  half_full: x
# UVM_ERROR components/comparator.svh(58) @ 180: uvm_test_top.env_h.scoreboard_h.comparator_h [SCOREBOARD] FAIL
# UVM_INFO components/comparator.svh(46) @ 180: uvm_test_top.env_h.scoreboard_h.comparator_h [COMPARATOR] RUN PHASE
# start of pre_body task
# start of pre_body task
# UVM_INFO components/predictor.svh(71) @ 180: uvm_test_top.env_h.scoreboard_h.predictor_h [PREDICTOR] WRITTEN_DATA: rst_n:1 ,wr_en:1 ,rd_en:0 , data_in:42437
# WRITE_POINER = 0
# READ_POINER = 0
# UVM_INFO components/predictor.svh(75) @ 180: uvm_test_top.env_h.scoreboard_h.predictor_h [PREDICTOR] EXPECTED_DATA:  time:                  180  rst_n:1  data_in: 42437  wr_en: 1  rd_en: 0  data_out: 0  wr_ack: 0  overflow:1  underflow: 0  almost_empty: 0  empty: 0   almost_full: 0   full: 1  half_full: 0
# my_predictor run phase
# UVM_INFO components/comparator.svh(48) @ 180: uvm_test_top.env_h.scoreboard_h.comparator_h [COMPARATOR] EXPECTED_SEQ_ITEM RECIEVED:  time:                  180  rst_n:1  data_in: 42437  wr_en: 1  rd_en: 0  data_out: 0  wr_ack: 0  overflow:1  underflow: 0  almost_empty: 0  empty: 0   almost_full: 0   full: 1  half_full: 0
# UVM_INFO components/comparator.svh(51) @ 200: uvm_test_top.env_h.scoreboard_h.comparator_h [COMPARATOR] actual_SEQ_ITEM RECIEVED:  time:                  200  rst_n:1  data_in: 42437  wr_en: 1  rd_en: 0  data_out: x  wr_ack: 0  overflow:1  underflow: 0  almost_empty: 0  empty: 0   almost_full: 0   full: 1  half_full: x
# UVM_ERROR components/comparator.svh(58) @ 200: uvm_test_top.env_h.scoreboard_h.comparator_h [SCOREBOARD] FAIL
# UVM_INFO components/comparator.svh(46) @ 200: uvm_test_top.env_h.scoreboard_h.comparator_h [COMPARATOR] RUN PHASE
# start of pre_body task
# start of pre_body task
# start of pre_body task
# start of pre_body task
# start of pre_body task
# UVM_INFO components/predictor.svh(71) @ 200: uvm_test_top.env_h.scoreboard_h.predictor_h [PREDICTOR] WRITTEN_DATA: rst_n:1 ,wr_en:0 ,rd_en:1 , data_in:0
# WRITE_POINER = 0
